{ "height":21,
 "layers":[
        {
         "data":[0, 0, 0, 0, 0, 0, 0, 25, 18, 18, 18, 18, 18, 18, 18, 18, 18, 18, 26, 0, 0, 0, 0, 0, 0, 0, 11, 0, 0, 0, 0, 0, 0, 0, 22, 22, 22, 9, 0, 0, 0, 0, 0, 0, 0, 11, 0, 0, 0, 0, 0, 0, 0, 22, 13, 22, 9, 0, 0, 0, 0, 0, 0, 0, 11, 0, 0, 0, 0, 0, 0, 0, 22, 22, 22, 9, 0, 0, 0, 0, 0, 0, 0, 11, 0, 0, 0, 1, 2, 2, 2, 2, 2, 2, 34, 0, 0, 0, 0, 0, 0, 0, 11, 0, 0, 0, 9, 0, 0, 0, 0, 0, 0, 0, 0, 0, 0, 0, 25, 18, 18, 19, 0, 0, 0, 9, 0, 0, 0, 0, 0, 0, 0, 0, 0, 0, 0, 11, 0, 0, 0, 0, 0, 0, 9, 0, 0, 0, 0, 0, 0, 0, 0, 0, 0, 0, 11, 0, 0, 0, 0, 0, 1, 34, 0, 0, 0, 0, 0, 0, 0, 0, 0, 0, 0, 11, 0, 0, 0, 0, 1, 34, 0, 0, 0, 0, 0, 0, 0, 0, 0, 0, 0, 25, 19, 0, 0, 0, 0, 17, 26, 0, 0, 0, 0, 0, 0, 0, 0, 0, 0, 0, 11, 0, 0, 0, 0, 0, 0, 9, 0, 0, 0, 0, 0, 0, 0, 0, 0, 0, 0, 33, 3, 0, 0, 0, 0, 1, 34, 0, 0, 0, 0, 0, 0, 0, 0, 0, 0, 0, 0, 11, 0, 0, 0, 0, 9, 0, 0, 0, 0, 0, 0, 0, 0, 0, 0, 0, 0, 0, 33, 3, 0, 0, 0, 9, 0, 0, 0, 0, 0, 0, 0, 0, 0, 25, 18, 18, 18, 18, 19, 0, 0, 0, 9, 0, 0, 0, 0, 0, 0, 0, 0, 0, 11, 0, 0, 0, 0, 0, 0, 0, 0, 9, 0, 0, 0, 0, 0, 0, 0, 0, 0, 11, 0, 0, 0, 0, 0, 0, 1, 2, 34, 0, 0, 0, 0, 0, 0, 0, 0, 0, 11, 0, 0, 0, 0, 0, 0, 9, 0, 0, 0, 0, 0, 0, 0, 0, 0, 0, 0, 11, 0, 0, 0, 0, 0, 0, 9, 0, 0, 0, 0, 0, 0, 0, 0, 0, 0, 0, 33, 2, 2, 2, 2, 2, 2, 34, 0, 0, 0, 0, 0, 0, 0, 0, 0, 0, 0],
         "height":21,
         "name":"Bg",
         "opacity":1,
         "type":"tilelayer",
         "visible":true,
         "width":19,
         "x":0,
         "y":0
        }, 
        {
         "draworder":"topdown",
         "height":21,
         "name":"player",
         "objects":[
                {
                 "height":21,
                 "id":1,
                 "name":"",
                 "properties":
                    {

                    },
                 "rotation":0,
                 "type":"",
                 "visible":true,
                 "width":30,
                 "x":85,
                 "y":563
                }],
         "opacity":1,
         "type":"objectgroup",
         "visible":true,
         "width":19,
         "x":0,
         "y":0
        }, 
        {
         "draworder":"topdown",
         "height":21,
         "name":"fire_spitter",
         "objects":[
                {
                 "gid":57,
                 "height":32,
                 "id":2,
                 "name":"fire_spitter",
                 "properties":
                    {
                     "aim":"left"
                    },
                 "rotation":0,
                 "type":"",
                 "visible":true,
                 "width":32,
                 "x":282,
                 "y":480
                }, 
                {
                 "gid":57,
                 "height":32,
                 "id":3,
                 "name":"fire_spitter",
                 "properties":
                    {
                     "aim":"right"
                    },
                 "rotation":0,
                 "type":"",
                 "visible":true,
                 "width":32,
                 "x":230,
                 "y":160
                }, 
                {
                 "gid":57,
                 "height":32,
                 "id":4,
                 "name":"fire_spitter",
                 "properties":
                    {
                     "aim":"right"
                    },
                 "rotation":0,
                 "type":"",
                 "visible":true,
                 "width":32,
                 "x":230,
                 "y":192
                }],
         "opacity":1,
         "type":"objectgroup",
         "visible":true,
         "width":19,
         "x":0,
         "y":0
        }, 
        {
         "draworder":"topdown",
         "height":21,
         "name":"coins",
         "objects":[
                {
                 "gid":41,
                 "height":32,
                 "id":8,
                 "name":"",
                 "properties":
                    {

                    },
                 "rotation":0,
                 "type":"",
                 "visible":true,
                 "width":32,
                 "x":162.166833333333,
                 "y":447.000183333333
                }, 
                {
                 "gid":41,
                 "height":32,
                 "id":9,
                 "name":"",
                 "properties":
                    {

                    },
                 "rotation":0,
                 "type":"",
                 "visible":true,
                 "width":32,
                 "x":289.499833333333,
                 "y":286.500183333333
                }, 
                {
                 "gid":41,
                 "height":32,
                 "id":10,
                 "name":"",
                 "properties":
                    {

                    },
                 "rotation":0,
                 "type":"",
                 "visible":true,
                 "width":32,
                 "x":387.999833333333,
                 "y":92.6664833333333
                }],
         "opacity":1,
         "type":"objectgroup",
         "visible":true,
         "width":19,
         "x":0,
         "y":0
        }, 
        {
         "draworder":"topdown",
         "height":21,
         "name":"x_jumper",
         "objects":[
                {
                 "gid":57,
                 "height":32,
                 "id":11,
                 "name":"x_jumper",
                 "properties":
                    {
                     "b_left":"true",
                     "b_right":"false",
                     "tiles_move":"5"
                    },
                 "rotation":0,
                 "type":"",
                 "visible":true,
                 "width":32,
                 "x":128,
                 "y":384
                }],
         "opacity":1,
         "type":"objectgroup",
         "visible":true,
         "width":19,
         "x":0,
         "y":0
        }, 
        {
         "draworder":"topdown",
         "height":21,
         "name":"endpoint",
         "objects":[
                {
                 "height":32,
                 "id":12,
                 "name":"",
                 "properties":
                    {

                    },
                 "rotation":0,
                 "type":"",
                 "visible":true,
                 "width":32,
                 "x":480,
                 "y":64
                }],
         "opacity":1,
         "type":"objectgroup",
         "visible":true,
         "width":19,
         "x":0,
         "y":0
        }, 
        {
         "draworder":"topdown",
         "height":21,
         "name":"texts",
         "objects":[
                {
                 "height":32,
                 "id":13,
                 "name":"",
                 "properties":
                    {
                     "text":"{\"who\": \"player\", \"text\": \"Why do we need to collect\"};{\"who\": \"player\", \"text\": \"this little coins?\"};{\"who\": \"brother\", \"text\": \"...\"};{\"who\": \"brother\", \"text\": \"I don't know.\"}"
                    },
                 "rotation":0,
                 "type":"",
                 "visible":true,
                 "width":32,
                 "x":416,
                 "y":63.75
                }],
         "opacity":1,
         "type":"objectgroup",
         "visible":true,
         "width":19,
         "x":0,
         "y":0
        }],
 "nextobjectid":15,
 "orientation":"orthogonal",
 "properties":
    {

    },
 "renderorder":"right-down",
 "tileheight":32,
 "tilesets":[
        {
         "firstgid":1,
         "image":"..\/..\/..\/..\/..\/..\/..\/home\/jpino\/dev\/pers\/platformer_webpack\/assets\/sprites\/blacknwhite.png",
         "imageheight":224,
         "imagewidth":256,
         "margin":0,
         "name":"blacknwhite",
         "properties":
            {

            },
         "spacing":0,
         "tilecount":56,
         "tileheight":32,
         "tilewidth":32
        }, 
        {
         "firstgid":57,
         "image":"..\/..\/..\/..\/..\/..\/..\/home\/jpino\/dev\/pers\/platformer_webpack\/assets\/sprites\/blue.png",
         "imageheight":32,
         "imagewidth":32,
         "margin":0,
         "name":"blue",
         "properties":
            {

            },
         "spacing":0,
         "tilecount":1,
         "tileheight":32,
         "tilewidth":32
        }],
 "tilewidth":32,
 "version":1,
 "width":19
}