{ "height":40,
 "layers":[
        {
         "data":[0, 0, 0, 0, 0, 0, 0, 0, 0, 25, 18, 18, 18, 18, 18, 18, 18, 18, 18, 18, 18, 18, 26, 0, 0, 0, 0, 0, 0, 0, 0, 0, 0, 0, 0, 0, 0, 0, 0, 0, 0, 0, 0, 0, 25, 18, 18, 18, 18, 18, 26, 0, 0, 11, 0, 0, 0, 0, 0, 0, 0, 0, 0, 0, 0, 0, 9, 0, 0, 0, 0, 0, 0, 0, 0, 0, 0, 0, 0, 0, 0, 0, 0, 0, 0, 0, 0, 0, 11, 0, 0, 0, 0, 0, 9, 0, 0, 11, 0, 0, 0, 0, 0, 0, 0, 0, 0, 0, 0, 0, 9, 0, 0, 0, 0, 0, 0, 0, 0, 0, 0, 0, 0, 0, 0, 0, 0, 0, 0, 0, 0, 0, 11, 0, 0, 0, 0, 0, 17, 18, 18, 19, 0, 0, 0, 0, 0, 0, 0, 0, 0, 0, 0, 0, 17, 18, 18, 18, 18, 18, 18, 26, 0, 0, 0, 0, 0, 0, 0, 0, 0, 0, 0, 0, 0, 0, 11, 0, 0, 0, 0, 0, 0, 0, 0, 0, 0, 0, 0, 0, 0, 0, 0, 0, 0, 0, 0, 0, 0, 0, 0, 0, 0, 0, 0, 9, 0, 0, 0, 0, 0, 0, 0, 0, 0, 0, 0, 0, 0, 0, 33, 2, 2, 3, 0, 0, 0, 0, 0, 0, 0, 0, 0, 0, 0, 0, 0, 0, 0, 0, 0, 0, 0, 0, 0, 0, 0, 0, 0, 17, 18, 26, 0, 0, 0, 0, 0, 0, 0, 0, 0, 0, 0, 0, 0, 0, 0, 11, 0, 0, 0, 0, 0, 0, 0, 0, 0, 0, 0, 0, 0, 0, 0, 0, 0, 0, 0, 0, 0, 0, 0, 0, 0, 0, 0, 9, 0, 0, 0, 0, 0, 0, 0, 0, 0, 0, 0, 0, 0, 0, 0, 33, 2, 2, 2, 2, 2, 3, 0, 0, 0, 0, 0, 0, 0, 0, 0, 0, 0, 0, 1, 2, 2, 2, 3, 0, 0, 0, 0, 17, 18, 18, 26, 0, 0, 0, 0, 0, 0, 0, 0, 0, 0, 0, 0, 0, 0, 0, 0, 0, 0, 11, 0, 0, 0, 0, 0, 0, 0, 0, 0, 0, 0, 0, 9, 0, 0, 0, 11, 0, 0, 0, 0, 0, 0, 0, 9, 0, 0, 0, 0, 0, 0, 0, 0, 0, 0, 0, 0, 0, 0, 0, 0, 0, 0, 33, 2, 2, 2, 2, 2, 2, 2, 2, 2, 2, 2, 2, 34, 0, 0, 0, 33, 2, 3, 0, 0, 0, 0, 0, 9, 0, 0, 0, 0, 0, 0, 0, 0, 0, 0, 0, 0, 0, 0, 0, 0, 0, 0, 0, 0, 0, 0, 0, 0, 0, 0, 0, 25, 18, 26, 25, 18, 26, 25, 18, 26, 0, 11, 0, 0, 0, 0, 0, 9, 0, 0, 0, 0, 0, 0, 0, 0, 0, 0, 0, 0, 0, 0, 0, 25, 18, 18, 18, 18, 18, 18, 18, 18, 18, 18, 18, 19, 0, 17, 19, 0, 17, 19, 0, 17, 26, 33, 2, 3, 0, 0, 0, 9, 0, 0, 0, 0, 0, 0, 0, 0, 0, 0, 0, 0, 0, 0, 0, 11, 0, 0, 0, 0, 0, 0, 0, 0, 0, 0, 0, 0, 0, 0, 0, 0, 0, 0, 0, 0, 17, 26, 0, 11, 0, 0, 0, 9, 0, 0, 0, 0, 0, 0, 0, 0, 0, 0, 0, 0, 0, 0, 0, 11, 0, 0, 0, 0, 0, 0, 0, 0, 0, 0, 0, 0, 0, 0, 0, 0, 0, 0, 0, 0, 0, 17, 18, 19, 0, 0, 0, 9, 0, 0, 0, 0, 0, 0, 0, 0, 0, 0, 0, 0, 0, 0, 0, 11, 0, 0, 0, 0, 0, 0, 0, 0, 0, 0, 0, 0, 0, 0, 0, 0, 0, 0, 0, 0, 0, 0, 0, 0, 0, 0, 0, 9, 0, 0, 0, 0, 0, 0, 0, 0, 0, 0, 0, 0, 0, 0, 0, 11, 0, 0, 0, 0, 0, 0, 0, 0, 0, 0, 0, 0, 0, 0, 0, 0, 0, 0, 0, 0, 0, 0, 0, 0, 0, 0, 0, 9, 0, 0, 0, 0, 0, 0, 0, 0, 0, 0, 0, 0, 0, 0, 0, 11, 0, 0, 0, 0, 0, 0, 0, 0, 0, 0, 0, 0, 0, 0, 0, 0, 0, 0, 0, 0, 0, 0, 0, 0, 0, 0, 0, 9, 0, 0, 0, 0, 0, 0, 0, 0, 0, 0, 0, 0, 25, 18, 18, 19, 0, 0, 0, 0, 0, 1, 2, 2, 3, 0, 0, 0, 0, 0, 0, 0, 0, 0, 0, 0, 0, 1, 2, 2, 2, 2, 2, 34, 0, 0, 0, 0, 0, 0, 0, 0, 0, 0, 0, 0, 11, 0, 0, 0, 0, 0, 0, 0, 0, 9, 0, 0, 33, 2, 2, 3, 0, 1, 3, 0, 1, 3, 0, 1, 2, 34, 0, 0, 0, 0, 0, 0, 0, 0, 0, 0, 0, 0, 0, 0, 0, 0, 0, 0, 11, 0, 0, 0, 0, 0, 0, 1, 2, 34, 0, 0, 0, 0, 0, 33, 2, 34, 33, 2, 34, 33, 2, 34, 0, 0, 0, 0, 0, 0, 0, 0, 0, 0, 0, 0, 0, 0, 0, 0, 0, 0, 0, 0, 11, 0, 0, 0, 0, 0, 0, 9, 0, 25, 18, 18, 18, 18, 18, 18, 18, 18, 18, 18, 18, 18, 18, 18, 18, 18, 18, 18, 18, 18, 18, 18, 18, 18, 18, 18, 18, 18, 18, 18, 26, 0, 0, 0, 11, 0, 0, 0, 0, 1, 2, 34, 0, 11, 0, 0, 0, 0, 0, 0, 0, 0, 0, 0, 0, 0, 0, 0, 0, 0, 0, 0, 0, 0, 0, 0, 0, 0, 0, 0, 0, 22, 22, 22, 9, 0, 0, 25, 19, 0, 0, 0, 0, 17, 26, 0, 0, 11, 0, 0, 0, 0, 0, 0, 0, 0, 0, 0, 0, 0, 0, 0, 0, 0, 0, 0, 0, 0, 0, 0, 0, 0, 0, 0, 0, 22, 13, 22, 9, 0, 0, 11, 0, 0, 0, 0, 0, 0, 9, 0, 0, 11, 0, 0, 0, 0, 0, 0, 0, 0, 0, 0, 0, 0, 0, 0, 0, 0, 0, 0, 0, 0, 0, 0, 0, 0, 0, 0, 0, 22, 22, 22, 9, 0, 0, 33, 3, 0, 0, 0, 0, 1, 34, 0, 0, 11, 0, 0, 0, 0, 1, 3, 0, 0, 0, 0, 0, 0, 0, 1, 3, 0, 0, 0, 0, 0, 0, 0, 0, 1, 2, 2, 2, 2, 2, 2, 34, 0, 0, 0, 11, 0, 0, 0, 0, 9, 0, 0, 0, 11, 0, 0, 0, 0, 9, 11, 0, 0, 0, 0, 0, 0, 0, 9, 11, 0, 0, 0, 0, 0, 0, 0, 0, 9, 0, 0, 0, 0, 0, 0, 0, 0, 0, 0, 11, 0, 0, 0, 0, 17, 26, 0, 0, 11, 0, 0, 0, 0, 9, 33, 2, 2, 2, 2, 2, 2, 2, 34, 33, 2, 2, 2, 2, 2, 2, 2, 2, 34, 0, 0, 0, 0, 0, 0, 0, 0, 0, 0, 33, 2, 3, 0, 0, 0, 9, 0, 0, 11, 0, 0, 0, 0, 9, 0, 0, 0, 0, 0, 0, 0, 0, 0, 0, 0, 0, 0, 0, 0, 0, 0, 0, 0, 0, 0, 0, 0, 0, 0, 0, 0, 0, 0, 0, 25, 19, 0, 0, 0, 17, 26, 0, 11, 0, 0, 0, 0, 9, 0, 0, 0, 0, 0, 0, 0, 0, 0, 0, 0, 0, 0, 0, 0, 0, 0, 0, 0, 0, 0, 0, 0, 0, 0, 0, 0, 0, 0, 0, 11, 0, 0, 0, 0, 0, 9, 0, 11, 0, 0, 0, 0, 9, 0, 0, 0, 0, 0, 0, 0, 0, 0, 0, 0, 0, 0, 0, 0, 0, 0, 0, 0, 0, 0, 0, 0, 0, 0, 0, 0, 0, 0, 0, 33, 3, 0, 0, 0, 1, 34, 0, 11, 0, 0, 0, 0, 9, 0, 0, 0, 0, 0, 0, 0, 0, 0, 0, 0, 0, 0, 0, 0, 0, 0, 0, 0, 0, 0, 0, 0, 0, 0, 0, 0, 0, 0, 0, 0, 11, 0, 0, 0, 17, 18, 18, 19, 0, 0, 0, 0, 9, 0, 0, 0, 0, 0, 0, 0, 0, 0, 0, 0, 0, 0, 0, 0, 0, 0, 0, 0, 0, 0, 0, 0, 0, 0, 0, 0, 0, 0, 0, 0, 11, 0, 0, 0, 0, 0, 0, 0, 0, 0, 0, 0, 9, 0, 0, 0, 0, 0, 0, 0, 0, 0, 0, 0, 0, 0, 0, 0, 0, 0, 0, 0, 0, 0, 0, 0, 0, 0, 0, 0, 0, 0, 0, 0, 11, 0, 0, 0, 0, 0, 0, 0, 0, 0, 0, 0, 9, 0, 0, 0, 0, 0, 0, 0, 0, 0, 0, 0, 0, 0, 0, 0, 0, 0, 0, 0, 0, 0, 0, 0, 0, 0, 0, 0, 0, 0, 0, 0, 11, 0, 0, 0, 0, 0, 0, 0, 0, 0, 0, 0, 9, 0, 0, 0, 0, 0, 0, 0, 0, 0, 0, 0, 0, 0, 0, 0, 0, 0, 0, 0, 0, 0, 0, 0, 0, 0, 0, 0, 0, 0, 0, 0, 33, 2, 2, 2, 2, 2, 2, 2, 2, 2, 2, 2, 34, 0, 0, 0, 0, 0, 0, 0, 0, 0, 0, 0, 0, 0, 0, 0, 0, 0, 0, 0, 0, 0, 0, 0, 0, 0, 0, 0, 0, 0, 0, 0, 0, 0, 0, 0, 0, 0, 0, 0, 0, 0, 0, 0, 0, 0, 0, 0, 0, 0, 0, 0, 0, 0, 0, 0, 0, 0, 0, 0, 0, 0, 0, 0, 0, 0, 0, 0, 0, 0, 0, 0, 0, 0, 0, 0, 0, 0, 0, 0, 0, 0, 0, 0, 0, 0, 0, 0, 0, 0, 0, 0, 0, 0, 0, 0, 0, 0, 0, 0, 0, 0, 0, 0, 0, 0, 0, 0, 0, 0, 0, 0, 0, 0, 0, 0, 0, 0, 0, 0, 0, 0, 0, 0, 0, 0, 0, 0, 0, 0, 0, 0, 0, 0, 0, 0, 0, 0, 0, 0, 0, 0, 0, 0, 0, 0, 0, 0, 0, 0, 0, 0, 0, 0, 0, 0, 0, 0, 0, 0, 0, 0, 0, 0, 0, 0, 0, 0, 0, 0, 0, 0, 0, 0, 0, 0, 0, 0, 0, 0, 0, 0, 0, 0, 0, 0, 0, 0, 0, 0, 0, 0, 0, 0, 0, 0, 0, 0, 0, 0, 0, 0, 0],
         "height":40,
         "name":"Bg",
         "opacity":1,
         "type":"tilelayer",
         "visible":true,
         "width":44,
         "x":0,
         "y":0
        }, 
        {
         "draworder":"topdown",
         "height":36,
         "name":"player",
         "objects":[
                {
                 "height":25.3333333333333,
                 "id":1,
                 "name":"",
                 "properties":
                    {

                    },
                 "rotation":0,
                 "type":"",
                 "visible":true,
                 "width":28,
                 "x":77.3333333333333,
                 "y":96
                }],
         "opacity":1,
         "type":"objectgroup",
         "visible":true,
         "width":44,
         "x":0,
         "y":0
        }, 
        {
         "draworder":"topdown",
         "height":36,
         "name":"endpoint",
         "objects":[
                {
                 "height":32,
                 "id":2,
                 "name":"",
                 "properties":
                    {

                    },
                 "rotation":0,
                 "type":"",
                 "visible":true,
                 "width":32,
                 "x":1280,
                 "y":704
                }],
         "opacity":1,
         "type":"objectgroup",
         "visible":true,
         "width":44,
         "x":0,
         "y":0
        }, 
        {
         "draworder":"topdown",
         "height":36,
         "name":"fire_spitter",
         "objects":[
                {
                 "gid":57,
                 "height":32,
                 "id":3,
                 "name":"fire_spitter",
                 "properties":
                    {
                     "aim":"top"
                    },
                 "rotation":0,
                 "type":"",
                 "visible":true,
                 "width":32,
                 "x":352,
                 "y":314
                }, 
                {
                 "gid":57,
                 "height":32,
                 "id":4,
                 "name":"fire_spitter",
                 "properties":
                    {
                     "aim":"top"
                    },
                 "rotation":0,
                 "type":"",
                 "visible":true,
                 "width":32,
                 "x":480,
                 "y":314
                }, 
                {
                 "gid":57,
                 "height":32,
                 "id":5,
                 "name":"fire_spitter",
                 "properties":
                    {
                     "aim":"top"
                    },
                 "rotation":0,
                 "type":"",
                 "visible":true,
                 "width":32,
                 "x":608,
                 "y":314
                }, 
                {
                 "gid":57,
                 "height":32,
                 "id":6,
                 "name":"fire_spitter",
                 "properties":
                    {
                     "aim":"bottom"
                    },
                 "rotation":0,
                 "type":"",
                 "visible":true,
                 "width":32,
                 "x":416,
                 "y":38
                }, 
                {
                 "gid":57,
                 "height":32,
                 "id":7,
                 "name":"fire_spitter",
                 "properties":
                    {
                     "aim":"bottom"
                    },
                 "rotation":0,
                 "type":"",
                 "visible":true,
                 "width":32,
                 "x":544,
                 "y":38
                }],
         "opacity":1,
         "type":"objectgroup",
         "visible":true,
         "width":44,
         "x":0,
         "y":0
        }, 
        {
         "draworder":"topdown",
         "height":36,
         "name":"y_jumper",
         "objects":[
                {
                 "gid":57,
                 "height":32,
                 "id":11,
                 "name":"y_jumper",
                 "properties":
                    {
                     "b_bot":"false",
                     "b_top":"true",
                     "tiles_move":"7"
                    },
                 "rotation":0,
                 "type":"",
                 "visible":true,
                 "width":32,
                 "x":799.875,
                 "y":384.0625
                }, 
                {
                 "gid":57,
                 "height":32,
                 "id":12,
                 "name":"y_jumper",
                 "properties":
                    {
                     "b_bot":"false",
                     "b_top":"true",
                     "tiles_move":"7"
                    },
                 "rotation":0,
                 "type":"",
                 "visible":true,
                 "width":32,
                 "x":704,
                 "y":383.9375
                }, 
                {
                 "gid":57,
                 "height":32,
                 "id":13,
                 "name":"y_jumper",
                 "properties":
                    {
                     "b_bot":"false",
                     "b_top":"true",
                     "tiles_move":"7"
                    },
                 "rotation":0,
                 "type":"",
                 "visible":true,
                 "width":32,
                 "x":607.875,
                 "y":384.0625
                }],
         "opacity":1,
         "type":"objectgroup",
         "visible":true,
         "width":44,
         "x":0,
         "y":0
        }, 
        {
         "draworder":"topdown",
         "height":36,
         "name":"x_jumper",
         "objects":[
                {
                 "gid":57,
                 "height":32,
                 "id":16,
                 "name":"x_jumper",
                 "properties":
                    {
                     "b_left":"true",
                     "b_right":"false",
                     "tiles_move":"4"
                    },
                 "rotation":0,
                 "type":"",
                 "visible":true,
                 "width":32,
                 "x":160,
                 "y":960
                }, 
                {
                 "gid":57,
                 "height":32,
                 "id":17,
                 "name":"x_jumper",
                 "properties":
                    {
                     "b_left":"false",
                     "b_right":"true",
                     "tiles_move":"-5"
                    },
                 "rotation":0,
                 "type":"",
                 "visible":true,
                 "width":32,
                 "x":256,
                 "y":768
                }],
         "opacity":1,
         "type":"objectgroup",
         "visible":true,
         "width":44,
         "x":0,
         "y":0
        }, 
        {
         "draworder":"topdown",
         "height":36,
         "name":"spikes",
         "objects":[
                {
                 "gid":57,
                 "height":32,
                 "id":20,
                 "name":"spike",
                 "properties":
                    {

                    },
                 "rotation":0,
                 "type":"",
                 "visible":true,
                 "width":32,
                 "x":624,
                 "y":816
                }, 
                {
                 "gid":57,
                 "height":32,
                 "id":21,
                 "name":"spike",
                 "properties":
                    {

                    },
                 "rotation":0,
                 "type":"",
                 "visible":true,
                 "width":32,
                 "x":656,
                 "y":816
                }, 
                {
                 "gid":57,
                 "height":32,
                 "id":22,
                 "name":"spike",
                 "properties":
                    {

                    },
                 "rotation":0,
                 "type":"",
                 "visible":true,
                 "width":32,
                 "x":688,
                 "y":816
                }, 
                {
                 "gid":57,
                 "height":32,
                 "id":23,
                 "name":"spike",
                 "properties":
                    {

                    },
                 "rotation":0,
                 "type":"",
                 "visible":true,
                 "width":32,
                 "x":720,
                 "y":816
                }, 
                {
                 "gid":57,
                 "height":32,
                 "id":24,
                 "name":"spike",
                 "properties":
                    {

                    },
                 "rotation":0,
                 "type":"",
                 "visible":true,
                 "width":32,
                 "x":752,
                 "y":816
                }, 
                {
                 "gid":57,
                 "height":32,
                 "id":25,
                 "name":"spike",
                 "properties":
                    {

                    },
                 "rotation":0,
                 "type":"",
                 "visible":true,
                 "width":32,
                 "x":784,
                 "y":816
                }, 
                {
                 "gid":57,
                 "height":32,
                 "id":26,
                 "name":"spike",
                 "properties":
                    {

                    },
                 "rotation":0,
                 "type":"",
                 "visible":true,
                 "width":32,
                 "x":816,
                 "y":816
                }, 
                {
                 "gid":57,
                 "height":32,
                 "id":27,
                 "name":"spike",
                 "properties":
                    {

                    },
                 "rotation":0,
                 "type":"",
                 "visible":true,
                 "width":32,
                 "x":912.25,
                 "y":816
                }, 
                {
                 "gid":57,
                 "height":32,
                 "id":28,
                 "name":"spike",
                 "properties":
                    {

                    },
                 "rotation":0,
                 "type":"",
                 "visible":true,
                 "width":32,
                 "x":944.25,
                 "y":816
                }, 
                {
                 "gid":57,
                 "height":32,
                 "id":29,
                 "name":"spike",
                 "properties":
                    {

                    },
                 "rotation":0,
                 "type":"",
                 "visible":true,
                 "width":32,
                 "x":976.25,
                 "y":816
                }, 
                {
                 "gid":57,
                 "height":32,
                 "id":30,
                 "name":"spike",
                 "properties":
                    {

                    },
                 "rotation":0,
                 "type":"",
                 "visible":true,
                 "width":32,
                 "x":1008.25,
                 "y":816
                }, 
                {
                 "gid":57,
                 "height":32,
                 "id":31,
                 "name":"spike",
                 "properties":
                    {

                    },
                 "rotation":0,
                 "type":"",
                 "visible":true,
                 "width":32,
                 "x":1040.25,
                 "y":816
                }, 
                {
                 "gid":57,
                 "height":32,
                 "id":32,
                 "name":"spike",
                 "properties":
                    {

                    },
                 "rotation":0,
                 "type":"",
                 "visible":true,
                 "width":32,
                 "x":1072.25,
                 "y":816
                }, 
                {
                 "gid":57,
                 "height":32,
                 "id":33,
                 "name":"spike",
                 "properties":
                    {

                    },
                 "rotation":0,
                 "type":"",
                 "visible":true,
                 "width":32,
                 "x":1104.25,
                 "y":816
                }, 
                {
                 "gid":57,
                 "height":32,
                 "id":34,
                 "name":"spike",
                 "properties":
                    {

                    },
                 "rotation":0,
                 "type":"",
                 "visible":true,
                 "width":32,
                 "x":1136,
                 "y":816
                }],
         "opacity":1,
         "type":"objectgroup",
         "visible":true,
         "width":44,
         "x":0,
         "y":0
        }, 
        {
         "draworder":"topdown",
         "height":36,
         "name":"coins",
         "objects":[
                {
                 "gid":41,
                 "height":32,
                 "id":35,
                 "name":"",
                 "properties":
                    {

                    },
                 "rotation":0,
                 "type":"",
                 "visible":true,
                 "width":32,
                 "x":772,
                 "y":193.333333333333
                }, 
                {
                 "gid":41,
                 "height":32,
                 "id":36,
                 "name":"",
                 "properties":
                    {

                    },
                 "rotation":0,
                 "type":"",
                 "visible":true,
                 "width":32,
                 "x":432,
                 "y":521.333333333333
                }, 
                {
                 "gid":41,
                 "height":32,
                 "id":37,
                 "name":"",
                 "properties":
                    {

                    },
                 "rotation":0,
                 "type":"",
                 "visible":true,
                 "width":32,
                 "x":213.333333333333,
                 "y":1110.66666666667
                }, 
                {
                 "gid":41,
                 "height":32,
                 "id":38,
                 "name":"",
                 "properties":
                    {

                    },
                 "rotation":0,
                 "type":"",
                 "visible":true,
                 "width":32,
                 "x":465.333333333333,
                 "y":833.333333333333
                }, 
                {
                 "gid":41,
                 "height":32,
                 "id":39,
                 "name":"",
                 "properties":
                    {

                    },
                 "rotation":0,
                 "type":"",
                 "visible":true,
                 "width":32,
                 "x":845.333333333333,
                 "y":752
                }, 
                {
                 "gid":41,
                 "height":32,
                 "id":40,
                 "name":"",
                 "properties":
                    {

                    },
                 "rotation":0,
                 "type":"",
                 "visible":true,
                 "width":32,
                 "x":1210.66666666667,
                 "y":738.666666666667
                }],
         "opacity":1,
         "type":"objectgroup",
         "visible":true,
         "width":44,
         "x":0,
         "y":0
        }],
 "nextobjectid":41,
 "orientation":"orthogonal",
 "properties":
    {

    },
 "renderorder":"right-down",
 "tileheight":32,
 "tilesets":[
        {
         "firstgid":1,
         "image":"..\/sprites\/blacknwhite.png",
         "imageheight":224,
         "imagewidth":256,
         "margin":0,
         "name":"blacknwhite",
         "properties":
            {

            },
         "spacing":0,
         "tilecount":56,
         "tileheight":32,
         "tilewidth":32
        }, 
        {
         "firstgid":57,
         "image":"..\/..\/..\/..\/..\/..\/..\/home\/jpino\/dev\/pers\/platformer_webpack\/assets\/sprites\/blue.png",
         "imageheight":32,
         "imagewidth":32,
         "margin":0,
         "name":"blue",
         "properties":
            {

            },
         "spacing":0,
         "tilecount":1,
         "tileheight":32,
         "tilewidth":32
        }],
 "tilewidth":32,
 "version":1,
 "width":44
}