{ "height":14,
 "layers":[
        {
         "data":[0, 0, 0, 0, 0, 0, 0, 0, 0, 0, 0, 0, 0, 0, 0, 0, 0, 0, 0, 0, 0, 0, 25, 18, 18, 18, 18, 18, 18, 18, 18, 18, 18, 18, 18, 18, 18, 18, 18, 18, 18, 18, 18, 18, 26, 0, 0, 0, 0, 0, 0, 0, 0, 0, 0, 0, 0, 0, 0, 0, 0, 0, 0, 0, 0, 0, 0, 11, 0, 0, 0, 0, 0, 0, 0, 0, 0, 0, 0, 0, 0, 0, 0, 0, 0, 0, 0, 0, 0, 9, 0, 0, 0, 0, 0, 0, 0, 0, 0, 0, 0, 0, 0, 0, 0, 0, 0, 0, 0, 0, 0, 0, 11, 0, 0, 0, 0, 0, 0, 0, 0, 0, 0, 0, 0, 0, 0, 0, 0, 0, 0, 0, 0, 0, 9, 0, 0, 0, 0, 0, 0, 0, 0, 0, 0, 0, 0, 0, 0, 0, 0, 0, 0, 0, 0, 0, 0, 11, 22, 22, 22, 0, 0, 0, 0, 0, 0, 0, 0, 0, 0, 0, 0, 0, 0, 0, 0, 0, 0, 9, 25, 18, 18, 18, 18, 18, 18, 18, 18, 18, 18, 18, 18, 18, 18, 26, 0, 0, 0, 0, 0, 0, 11, 22, 13, 22, 0, 0, 0, 1, 2, 2, 2, 2, 2, 2, 2, 2, 2, 2, 2, 2, 3, 0, 9, 11, 0, 0, 0, 0, 0, 0, 0, 0, 0, 0, 0, 0, 0, 0, 9, 0, 0, 0, 0, 0, 0, 11, 22, 22, 22, 0, 0, 0, 9, 0, 0, 0, 0, 0, 0, 0, 0, 0, 0, 0, 0, 11, 0, 9, 11, 0, 0, 0, 0, 0, 0, 0, 0, 0, 0, 0, 0, 0, 0, 9, 0, 0, 0, 0, 0, 0, 33, 2, 2, 2, 2, 2, 2, 34, 0, 0, 0, 0, 0, 0, 0, 0, 0, 0, 0, 0, 11, 0, 9, 11, 0, 0, 0, 0, 0, 0, 0, 0, 0, 0, 0, 0, 0, 0, 9, 0, 0, 0, 0, 0, 0, 0, 0, 0, 0, 25, 18, 18, 18, 18, 18, 18, 18, 18, 18, 18, 18, 18, 18, 18, 18, 19, 0, 9, 11, 0, 0, 0, 0, 0, 0, 0, 0, 1, 2, 2, 3, 0, 0, 9, 0, 0, 0, 0, 0, 0, 0, 0, 0, 0, 11, 0, 0, 0, 0, 0, 0, 0, 0, 0, 0, 0, 0, 0, 0, 0, 0, 0, 9, 11, 0, 0, 0, 0, 0, 0, 0, 0, 9, 0, 0, 11, 0, 0, 17, 18, 18, 18, 18, 18, 18, 18, 18, 18, 18, 19, 0, 0, 0, 0, 0, 0, 0, 0, 0, 0, 0, 0, 0, 0, 0, 0, 0, 9, 11, 0, 0, 0, 0, 0, 0, 0, 0, 9, 0, 0, 11, 0, 0, 0, 0, 0, 0, 0, 0, 0, 0, 0, 0, 0, 0, 0, 0, 0, 0, 0, 0, 0, 0, 0, 0, 0, 0, 0, 0, 0, 0, 0, 9, 33, 2, 2, 2, 2, 2, 2, 2, 2, 34, 0, 0, 33, 2, 2, 3, 0, 1, 3, 0, 1, 3, 0, 1, 3, 0, 1, 2, 2, 3, 0, 0, 0, 0, 0, 0, 0, 0, 0, 0, 1, 2, 2, 2, 34, 0, 0, 0, 0, 0, 0, 0, 0, 0, 0, 0, 0, 0, 0, 0, 11, 0, 9, 11, 0, 9, 11, 0, 9, 11, 0, 9, 0, 0, 11, 0, 0, 0, 0, 0, 0, 0, 0, 0, 0, 9, 0, 0, 0, 0, 0, 0, 0, 0, 0, 0, 0, 0, 0, 0, 0, 0, 0, 0, 0, 33, 2, 34, 33, 2, 34, 33, 2, 34, 33, 2, 34, 0, 0, 33, 2, 2, 2, 2, 2, 2, 2, 2, 2, 2, 34, 0, 0, 0, 0],
         "height":14,
         "name":"Bg",
         "opacity":1,
         "type":"tilelayer",
         "visible":true,
         "width":45,
         "x":0,
         "y":0
        }, 
        {
         "draworder":"topdown",
         "height":14,
         "name":"spikes",
         "objects":[
                {
                 "gid":57,
                 "height":32,
                 "id":2,
                 "name":"spike",
                 "properties":
                    {

                    },
                 "rotation":0,
                 "type":"",
                 "visible":true,
                 "width":32,
                 "x":527,
                 "y":403
                }, 
                {
                 "gid":57,
                 "height":32,
                 "id":3,
                 "name":"spike",
                 "properties":
                    {

                    },
                 "rotation":0,
                 "type":"",
                 "visible":true,
                 "width":32,
                 "x":623,
                 "y":403
                }, 
                {
                 "gid":57,
                 "height":32,
                 "id":4,
                 "name":"spike",
                 "properties":
                    {

                    },
                 "rotation":0,
                 "type":"",
                 "visible":true,
                 "width":32,
                 "x":719,
                 "y":403
                }, 
                {
                 "gid":57,
                 "height":32,
                 "id":5,
                 "name":"spike",
                 "properties":
                    {

                    },
                 "rotation":0,
                 "type":"",
                 "visible":true,
                 "width":32,
                 "x":815,
                 "y":403
                }, 
                {
                 "gid":57,
                 "height":32,
                 "id":15,
                 "name":"spike",
                 "properties":
                    {

                    },
                 "rotation":0,
                 "type":"",
                 "visible":true,
                 "width":32,
                 "x":976,
                 "y":400
                }, 
                {
                 "gid":57,
                 "height":32,
                 "id":16,
                 "name":"spike",
                 "properties":
                    {

                    },
                 "rotation":0,
                 "type":"",
                 "visible":true,
                 "width":32,
                 "x":1008,
                 "y":400
                }, 
                {
                 "gid":57,
                 "height":32,
                 "id":17,
                 "name":"spike",
                 "properties":
                    {

                    },
                 "rotation":0,
                 "type":"",
                 "visible":true,
                 "width":32,
                 "x":1040,
                 "y":400
                }, 
                {
                 "gid":57,
                 "height":32,
                 "id":18,
                 "name":"spike",
                 "properties":
                    {

                    },
                 "rotation":0,
                 "type":"",
                 "visible":true,
                 "width":32,
                 "x":1072,
                 "y":400
                }, 
                {
                 "gid":57,
                 "height":32,
                 "id":19,
                 "name":"spike",
                 "properties":
                    {

                    },
                 "rotation":0,
                 "type":"",
                 "visible":true,
                 "width":32,
                 "x":1104,
                 "y":400
                }, 
                {
                 "gid":57,
                 "height":32,
                 "id":20,
                 "name":"spike",
                 "properties":
                    {

                    },
                 "rotation":0,
                 "type":"",
                 "visible":true,
                 "width":32,
                 "x":1136,
                 "y":400
                }, 
                {
                 "gid":57,
                 "height":32,
                 "id":21,
                 "name":"spike",
                 "properties":
                    {

                    },
                 "rotation":0,
                 "type":"",
                 "visible":true,
                 "width":32,
                 "x":1168,
                 "y":400
                }, 
                {
                 "gid":57,
                 "height":32,
                 "id":22,
                 "name":"spike",
                 "properties":
                    {

                    },
                 "rotation":0,
                 "type":"",
                 "visible":true,
                 "width":32,
                 "x":1200,
                 "y":400
                }, 
                {
                 "gid":57,
                 "height":32,
                 "id":23,
                 "name":"spike",
                 "properties":
                    {

                    },
                 "rotation":0,
                 "type":"",
                 "visible":true,
                 "width":32,
                 "x":1232,
                 "y":400
                }, 
                {
                 "gid":57,
                 "height":32,
                 "id":24,
                 "name":"spike",
                 "properties":
                    {

                    },
                 "rotation":0,
                 "type":"",
                 "visible":true,
                 "width":32,
                 "x":1264,
                 "y":400
                }],
         "opacity":1,
         "type":"objectgroup",
         "visible":true,
         "width":45,
         "x":0,
         "y":0
        }, 
        {
         "draworder":"topdown",
         "height":14,
         "name":"player",
         "objects":[
                {
                 "height":33,
                 "id":7,
                 "name":"",
                 "properties":
                    {

                    },
                 "rotation":0,
                 "type":"",
                 "visible":true,
                 "width":39,
                 "x":92,
                 "y":278
                }],
         "opacity":1,
         "type":"objectgroup",
         "visible":true,
         "width":45,
         "x":0,
         "y":0
        }, 
        {
         "draworder":"topdown",
         "height":14,
         "name":"coins",
         "objects":[
                {
                 "gid":41,
                 "height":32,
                 "id":9,
                 "name":"coin",
                 "properties":
                    {

                    },
                 "rotation":0,
                 "type":"",
                 "visible":true,
                 "width":32,
                 "x":193,
                 "y":349
                }, 
                {
                 "gid":41,
                 "height":32,
                 "id":10,
                 "name":"coin",
                 "properties":
                    {

                    },
                 "rotation":0,
                 "type":"",
                 "visible":true,
                 "width":32,
                 "x":432,
                 "y":340
                }, 
                {
                 "gid":41,
                 "height":32,
                 "id":11,
                 "name":"coin",
                 "properties":
                    {

                    },
                 "rotation":0,
                 "type":"",
                 "visible":true,
                 "width":32,
                 "x":834,
                 "y":352
                }, 
                {
                 "gid":41,
                 "height":32,
                 "id":12,
                 "name":"coin",
                 "properties":
                    {

                    },
                 "rotation":0,
                 "type":"",
                 "visible":true,
                 "width":32,
                 "x":1345,
                 "y":350
                }, 
                {
                 "gid":41,
                 "height":32,
                 "id":13,
                 "name":"coin",
                 "properties":
                    {

                    },
                 "rotation":0,
                 "type":"",
                 "visible":true,
                 "width":32,
                 "x":1378,
                 "y":160
                }, 
                {
                 "gid":41,
                 "height":32,
                 "id":14,
                 "name":"coin",
                 "properties":
                    {

                    },
                 "rotation":0,
                 "type":"",
                 "visible":true,
                 "width":32,
                 "x":868,
                 "y":191
                }],
         "opacity":1,
         "type":"objectgroup",
         "visible":true,
         "width":45,
         "x":0,
         "y":0
        }, 
        {
         "draworder":"topdown",
         "height":14,
         "name":"endpoint",
         "objects":[
                {
                 "height":32,
                 "id":25,
                 "name":"endpoint",
                 "properties":
                    {

                    },
                 "rotation":0,
                 "type":"",
                 "visible":true,
                 "width":32,
                 "x":736,
                 "y":128
                }],
         "opacity":1,
         "type":"objectgroup",
         "visible":true,
         "width":45,
         "x":0,
         "y":0
        }, 
        {
         "draworder":"topdown",
         "height":14,
         "name":"texts",
         "objects":[
                {
                 "height":32,
                 "id":28,
                 "name":"",
                 "properties":
                    {
                     "text":"{\"who\": \"brother\", \"text\": \"Remember.\"};{\"who\": \"brother\", \"text\": \"You're faster if you roll.\"}"
                    },
                 "rotation":0,
                 "type":"",
                 "visible":true,
                 "width":32,
                 "x":136.5,
                 "y":285.5
                }],
         "opacity":1,
         "type":"objectgroup",
         "visible":true,
         "width":45,
         "x":0,
         "y":0
        }],
 "nextobjectid":29,
 "orientation":"orthogonal",
 "properties":
    {

    },
 "renderorder":"right-down",
 "tileheight":32,
 "tilesets":[
        {
         "firstgid":1,
         "image":"..\/sprites\/blacknwhite.png",
         "imageheight":224,
         "imagewidth":256,
         "margin":0,
         "name":"blacknwhite",
         "properties":
            {

            },
         "spacing":0,
         "tilecount":56,
         "tileheight":32,
         "tilewidth":32
        }, 
        {
         "firstgid":57,
         "image":"..\/sprites\/blue.png",
         "imageheight":32,
         "imagewidth":32,
         "margin":0,
         "name":"blue",
         "properties":
            {

            },
         "spacing":0,
         "tilecount":1,
         "tileheight":32,
         "tilewidth":32
        }],
 "tilewidth":32,
 "version":1,
 "width":45
}