{ "height":9,
 "layers":[
        {
         "data":[0, 0, 0, 0, 0, 0, 0, 0, 25, 18, 18, 18, 26, 0, 0, 0, 0, 0, 0, 0, 0, 0, 0, 0, 25, 18, 18, 18, 18, 19, 0, 0, 0, 17, 18, 18, 18, 18, 18, 18, 18, 26, 25, 18, 18, 19, 0, 0, 0, 0, 0, 0, 0, 0, 0, 0, 0, 0, 0, 0, 0, 0, 9, 11, 0, 0, 0, 1, 2, 2, 2, 3, 0, 0, 0, 1, 2, 2, 2, 2, 2, 2, 2, 34, 11, 0, 0, 0, 17, 18, 18, 18, 18, 18, 18, 18, 18, 18, 18, 18, 18, 18, 18, 18, 26, 11, 0, 0, 0, 0, 0, 0, 0, 0, 0, 0, 0, 0, 0, 0, 0, 0, 22, 22, 22, 9, 33, 2, 3, 0, 0, 0, 0, 0, 0, 0, 0, 0, 0, 0, 0, 0, 0, 22, 13, 22, 9, 0, 0, 11, 0, 0, 0, 0, 0, 0, 0, 0, 0, 0, 0, 0, 0, 0, 22, 22, 22, 9, 0, 0, 33, 2, 2, 2, 2, 2, 2, 2, 2, 2, 2, 2, 2, 2, 2, 2, 2, 2, 34],
         "height":9,
         "name":"Bg",
         "opacity":1,
         "type":"tilelayer",
         "visible":true,
         "width":21,
         "x":0,
         "y":0
        }, 
        {
         "draworder":"topdown",
         "height":9,
         "name":"y_jumper",
         "objects":[
                {
                 "gid":57,
                 "height":32,
                 "id":3,
                 "name":"y_jumper",
                 "properties":
                    {
                     "b_bot":"false",
                     "b_top":"true",
                     "tiles_move":"2"
                    },
                 "rotation":0,
                 "type":"",
                 "visible":true,
                 "width":32,
                 "x":288,
                 "y":64
                }, 
                {
                 "gid":57,
                 "height":32,
                 "id":5,
                 "name":"y_jumper",
                 "properties":
                    {
                     "b_bot":"false",
                     "b_top":"true",
                     "tiles_move":"2"
                    },
                 "rotation":0,
                 "type":"",
                 "visible":true,
                 "width":32,
                 "x":352,
                 "y":64
                }, 
                {
                 "gid":57,
                 "height":32,
                 "id":6,
                 "name":"y_jumper",
                 "properties":
                    {
                     "b_bot":"false",
                     "b_top":"true",
                     "tiles_move":"2"
                    },
                 "rotation":0,
                 "type":"",
                 "visible":true,
                 "width":32,
                 "x":320,
                 "y":64
                }],
         "opacity":1,
         "type":"objectgroup",
         "visible":true,
         "width":21,
         "x":0,
         "y":0
        }, 
        {
         "draworder":"topdown",
         "height":9,
         "name":"coins",
         "objects":[
                {
                 "gid":41,
                 "height":32,
                 "id":7,
                 "name":"",
                 "properties":
                    {

                    },
                 "rotation":0,
                 "type":"",
                 "visible":true,
                 "width":32,
                 "x":320.5,
                 "y":224
                }],
         "opacity":1,
         "type":"objectgroup",
         "visible":true,
         "width":21,
         "x":0,
         "y":0
        }, 
        {
         "draworder":"topdown",
         "height":9,
         "name":"endpoint",
         "objects":[
                {
                 "height":32,
                 "id":8,
                 "name":"",
                 "properties":
                    {

                    },
                 "rotation":0,
                 "type":"",
                 "visible":true,
                 "width":32,
                 "x":544,
                 "y":192
                }],
         "opacity":1,
         "type":"objectgroup",
         "visible":true,
         "width":21,
         "x":0,
         "y":0
        }, 
        {
         "draworder":"topdown",
         "height":9,
         "name":"player",
         "objects":[
                {
                 "height":19.5,
                 "id":9,
                 "name":"",
                 "properties":
                    {

                    },
                 "rotation":0,
                 "type":"",
                 "visible":true,
                 "width":18,
                 "x":60,
                 "y":128.5
                }],
         "opacity":1,
         "type":"objectgroup",
         "visible":true,
         "width":21,
         "x":0,
         "y":0
        }, 
        {
         "draworder":"topdown",
         "height":9,
         "name":"texts",
         "objects":[
                {
                 "height":32,
                 "id":10,
                 "name":"",
                 "properties":
                    {
                     "text":"{\"who\": \"brother\", \"text\": \"Oh, those fishes again.\"};{\"who\": \"player\", \"text\": \"Do you know them?\"};{\"who\": \"brother\", \"text\": \"Be careful.\"}"
                    },
                 "rotation":0,
                 "type":"",
                 "visible":true,
                 "width":32,
                 "x":159.5,
                 "y":191.5
                }],
         "opacity":1,
         "type":"objectgroup",
         "visible":true,
         "width":21,
         "x":0,
         "y":0
        }],
 "nextobjectid":11,
 "orientation":"orthogonal",
 "properties":
    {

    },
 "renderorder":"right-down",
 "tileheight":32,
 "tilesets":[
        {
         "firstgid":1,
         "image":"..\/sprites\/blacknwhite.png",
         "imageheight":224,
         "imagewidth":256,
         "margin":0,
         "name":"blacknwhite",
         "properties":
            {

            },
         "spacing":0,
         "tilecount":56,
         "tileheight":32,
         "tilewidth":32
        }, 
        {
         "firstgid":57,
         "image":"..\/sprites\/blue.png",
         "imageheight":32,
         "imagewidth":32,
         "margin":0,
         "name":"blue",
         "properties":
            {

            },
         "spacing":0,
         "tilecount":1,
         "tileheight":32,
         "tilewidth":32
        }],
 "tilewidth":32,
 "version":1,
 "width":21
}